timestamp,feature1,feature2,result
2023-06-19 15:39:39,0.19482914630376602,0.40943880503159746,0
2023-06-20 23:42:39,0.7767343028799496,0.12011109751454851,1
2023-06-17 05:31:39,0.7825560842238098,0.8978739299079727,0
2023-06-15 07:25:39,0.6774395032048958,0.9080785651943869,0
2023-06-21 18:55:39,0.44981343207354685,0.2550782501817699,0
2023-06-16 22:09:39,0.0026204583578024465,0.7922720016101908,1
2023-06-16 05:40:39,0.6283025296923807,0.02174225779868677,1
2023-06-18 00:52:39,0.5180588888558029,0.29350398552132284,0
2023-06-21 14:53:39,0.0674821977480754,0.17138288981979288,1
2023-06-21 06:47:39,0.002648075214906842,0.5758660453276744,0
2023-06-18 02:02:39,0.5978060751859794,0.724932140128469,0
2023-06-20 13:26:39,0.41470686109509325,0.6577234884845807,0
2023-06-17 17:51:39,0.9819003541278308,0.5827347150641128,0
2023-06-20 02:20:39,0.7016789745266662,0.6086512377899056,1
2023-06-15 15:27:39,0.9136448127244065,0.1253330418440557,0
2023-06-18 22:04:39,0.7294210828245231,0.5158687002028088,1
2023-06-17 17:53:39,0.48111999685349305,0.5810241064235561,0
2023-06-20 21:19:39,0.9128342941125588,0.9881802193915997,0
2023-06-16 04:47:39,0.148555422173979,0.44920167391149557,0
2023-06-17 11:03:39,0.5819144157322821,0.56760474879594,1
2023-06-17 21:32:39,0.08162813262958135,0.7960545640815889,0
2023-06-15 01:08:39,0.1842828014872464,0.3504674042169641,1
2023-06-21 13:03:39,0.001809537286290075,0.6070102661473088,0
2023-06-17 07:23:39,0.20063099747764324,0.627196670250986,0
2023-06-20 10:12:39,0.7496501637662324,0.26681325523621,0
2023-06-19 20:01:39,0.29072499823436215,0.6284572732058977,1
