timestamp,feature3,metric1,result
2023-06-18 09:02:39,0.18991077107144505,0.2034533797531024,1
2023-06-21 01:01:39,0.49075861393281395,0.3244328510410308,1
2023-06-17 11:39:39,0.20952844504206514,0.6392724693891741,1
2023-06-19 13:51:39,0.05450706800575478,0.5376005365459369,0
2023-06-17 03:45:39,0.8821915593140929,0.2621338688187609,0
2023-06-19 03:29:39,0.07734099056806798,0.32448021452534737,1
2023-06-21 18:37:39,0.7030895534829991,0.44676592806137416,0
2023-06-15 23:09:39,0.07283607829210736,0.464582277397136,0
2023-06-18 16:09:39,0.06442051127178183,0.4844459404637601,1
2023-06-19 13:00:39,0.23186948992658452,0.6328084315010926,0
2023-06-14 21:40:39,0.3148021397384545,0.8895868368070453,1
2023-06-17 05:09:39,0.983998292921992,0.5327244022382776,0
2023-06-20 07:40:39,0.32442107370932394,0.9301615918568468,1
2023-06-16 02:37:39,0.3088790293005449,0.7268892725608963,1
2023-06-19 21:18:39,0.3751530457380703,0.7851866449044157,1
2023-06-21 06:01:39,0.2883290581870983,0.24653550185371054,1
2023-06-20 05:07:39,0.33252486982100926,0.6961449667762507,0
2023-06-19 03:25:39,0.3618146948189338,0.2908601750003269,1
2023-06-17 17:13:39,0.15873963861408102,0.1461717959289045,1
2023-06-15 02:20:39,0.7024044726689013,0.9321117932964538,0
2023-06-21 03:04:39,0.4932346905766165,0.9031309411682148,1
2023-06-18 14:46:39,0.4852445052470352,0.39044815239352837,1
2023-06-15 02:07:39,0.8110907971865234,0.22830070707002137,0
2023-06-19 10:44:39,0.8192295881706823,0.2926171976433186,1
2023-06-20 15:38:39,0.5004467050987149,0.36400042423676404,0
2023-06-18 16:40:39,0.7481058364229686,0.5120200750286756,0
2023-06-20 04:34:39,0.30225579307936545,0.67695934543264,1
2023-06-18 11:59:39,0.6092709246719868,0.4622974395369418,0
2023-06-18 06:07:39,0.13233040207094993,0.39193706216123925,0
2023-06-16 00:09:39,0.8997486502803497,0.27566746621512306,1
2023-06-20 10:48:39,0.6187350297297104,0.5137007123599472,1
2023-06-17 02:54:39,0.2179070945035103,0.9413025724740327,1
2023-06-19 10:22:39,0.2512639823441033,0.22040714331267997,0
2023-06-20 11:43:39,0.100415462514031,0.8941249183533209,1
2023-06-17 14:26:39,0.8423356007224719,0.17919691983592434,1
2023-06-17 21:11:39,0.9165455206919033,0.5893393171492993,1
2023-06-21 05:10:39,0.31746823713090544,0.40549126520676926,0
2023-06-17 01:21:39,0.9634554777467582,0.8437747125407257,1
2023-06-20 17:56:39,0.3941322837403687,0.8182558599636577,1
2023-06-20 04:52:39,0.26148778414466867,0.2471379508376832,0
2023-06-15 05:45:39,0.06165488868387925,0.5868280167874382,1
2023-06-16 05:09:39,0.9941807078337284,0.8867729700819414,1
2023-06-19 19:09:39,0.2783885562191256,0.3801673509861637,0
2023-06-16 05:01:39,0.9626498694506441,0.2846278007897395,1
2023-06-15 00:24:39,0.9747168806465373,0.15503180928251437,1
2023-06-18 11:55:39,0.13356194776966301,0.6856018975019078,1
2023-06-15 12:44:39,0.16733483865815113,0.6463471681109462,1
2023-06-16 01:59:39,0.8450617032753469,0.7794949095462943,1
2023-06-17 22:51:39,0.5607977980766419,0.13720007490695507,1
2023-06-16 00:24:39,0.6406762977843259,0.14181023901377576,0
2023-06-19 00:32:39,0.5800132583760268,0.7904630751901751,1
2023-06-15 21:31:39,0.26675228527460704,0.018042860464202004,1
2023-06-17 18:05:39,0.7299698115466939,0.8290802499825609,1
2023-06-16 09:00:39,0.6227759872640953,0.7742168411155965,1
2023-06-19 20:35:39,0.846537359724415,0.6272423417273311,1
2023-06-19 20:48:39,0.7066237861988071,0.6273941697900811,0
2023-06-19 21:08:39,0.5844577813109816,0.46299004435031765,1
2023-06-16 22:00:39,0.6491553526663072,0.09784302577299875,1
2023-06-19 21:15:39,0.6015038997345363,0.7706808174218495,1
2023-06-18 02:58:39,0.6589586481223518,0.45272717227807424,0
2023-06-19 15:45:39,0.7142882195615842,0.4810026854215754,0
2023-06-21 17:51:39,0.48491609733311314,0.8907497636679942,0
2023-06-16 03:47:39,0.5230322463709962,0.16281451816941384,0
2023-06-18 17:18:39,0.9088878910687888,0.029705031357580514,1
2023-06-20 22:16:39,0.3007865110727307,0.23887560304659672,0
2023-06-19 13:30:39,0.6375754490553887,0.4995643350512122,1
2023-06-21 04:59:39,0.2546772638836602,0.0997626428854379,0
2023-06-18 20:41:39,0.1946646804536969,0.4788005597111512,1
2023-06-15 07:31:39,0.7687118272181092,0.6914847792270721,1
2023-06-17 20:25:39,0.38303537872033266,0.6738994739363237,0
2023-06-15 01:58:39,0.2639141202904861,0.11234392446722907,0
2023-06-15 16:01:39,0.14007099606311202,0.07211246076091082,0
2023-06-19 19:33:39,0.951520751340881,0.9461104175209452,1
2023-06-20 09:49:39,0.767287610245863,0.3078514969978853,1
2023-06-15 06:30:39,0.11484865565383662,0.3544828168381364,0
2023-06-15 05:26:39,0.699552142531803,0.8201236332254884,1
2023-06-19 10:43:39,0.7006902530293099,0.8502410232018637,1
2023-06-16 09:54:39,0.7629113198060399,0.2300077858944224,1
2023-06-16 10:03:39,0.0969271147061026,0.2909332127177585,1
2023-06-17 18:14:39,0.02500101864487525,0.7892939879482836,1
2023-06-18 10:28:39,0.008278231663111035,0.10714450581138646,0
2023-06-17 16:54:39,0.4996512322766997,0.4381970769962428,1
2023-06-18 05:55:39,0.7418257388354977,0.909971698562537,0
2023-06-20 13:43:39,0.4436247272253211,0.696800259890209,1
2023-06-21 14:37:39,0.9814561259936333,0.9059163119901765,1
2023-06-17 09:34:39,0.5787428983410488,0.6098956799011399,1
2023-06-21 05:19:39,0.009511061727946468,0.27947981425780255,0
2023-06-15 00:00:39,0.5006761459144817,0.8047436336143078,1
2023-06-20 12:26:39,0.6522036685824124,0.09879792142404065,0
2023-06-19 14:20:39,0.21268250997662985,0.8120272077378501,0
2023-06-16 08:04:39,0.03477903103219404,0.49853432658031427,1
2023-06-18 20:18:39,0.4717249187105427,0.19527946351190528,0
2023-06-18 06:24:39,0.38305429804433533,0.42879349097679165,1
