timestamp,feature1,feature2,result
2023-06-17 00:17:39,0.3310303973097587,0.5130419531906821,1
2023-06-21 14:13:39,0.39355921278090733,0.26591135931057663,1
2023-06-17 09:14:39,0.4987951396820526,0.3446579844216098,1
2023-06-15 15:16:39,0.07479247985950699,0.5945408128433549,0
2023-06-18 03:16:39,0.8648779487229417,0.2724389852748367,1
2023-06-20 08:44:39,0.03603230231980026,0.8750294299236706,1
2023-06-20 09:14:39,0.27013437073199054,0.19802278551945907,1
2023-06-15 21:35:39,0.9048757752552326,0.297396838429813,1
2023-06-21 04:47:39,0.41851321606350655,0.11277903534450551,0
2023-06-15 03:24:39,0.5389598910105293,0.03661769668981851,1
2023-06-17 01:32:39,0.4278266484782419,0.3564848537873383,0
2023-06-16 20:25:39,0.10033800811361948,0.6857435566275812,0
2023-06-15 06:12:39,0.8328682466424047,0.8554678026476658,1
2023-06-15 21:16:39,0.007375689993176171,0.31243748973367624,1
2023-06-18 09:20:39,0.6800230948917528,0.052629539851062446,1
2023-06-20 01:46:39,0.6183326737270486,0.5627516829565818,1
2023-06-20 06:56:39,0.9585435544736658,0.22873462485025942,0
2023-06-21 03:14:39,0.12772529744022365,0.32176534842670623,1
2023-06-16 08:41:39,0.7404497249076601,0.3676561141961513,1
2023-06-18 09:23:39,0.06968566483243643,0.36230216326879117,1
2023-06-19 13:42:39,0.39227449827933114,0.08075682348185975,1
2023-06-20 00:04:39,0.3166145784128577,0.8105809686469363,1
2023-06-19 01:45:39,0.7384163795393882,0.6113721965589509,1
2023-06-20 21:07:39,0.5741160288566661,0.12703336287544253,0
2023-06-16 12:50:39,0.6504325375016503,0.24880971768217075,0
2023-06-16 15:00:39,0.13213081189209508,0.9065137293178597,1
2023-06-16 01:31:39,0.8348967724844135,0.3084015903840094,0
2023-06-20 20:03:39,0.7556637944845733,0.061174702434716566,0
2023-06-18 16:14:39,0.7902333118824946,0.7181815151429466,0
2023-06-17 16:06:39,0.31559506267818194,0.5367080985389991,0
2023-06-20 12:44:39,0.1085675930625618,0.5346467280699466,1
2023-06-19 05:31:39,0.9897638426125167,0.21278868262223316,1
2023-06-17 02:03:39,0.33447863581368176,0.39375663385219883,0
2023-06-20 06:32:39,0.398151988049504,0.5416679802080413,0
2023-06-18 20:47:39,0.029126495793113105,0.19281444155142713,0
2023-06-20 06:53:39,0.6583898928917582,0.38681710553817783,1
2023-06-18 23:42:39,0.6712093192773059,0.12164029636962004,0
2023-06-18 02:14:39,0.0708833485159106,0.15961664453812807,1
2023-06-16 04:21:39,0.2521085427010479,0.052457255705718686,1
2023-06-21 19:33:39,0.8517399604021489,0.13400855393514288,1
2023-06-17 23:34:39,0.007514999786123799,0.5644770457475853,0
2023-06-18 20:23:39,0.8161566071752328,0.3271876809102735,1
2023-06-20 06:51:39,0.2220707544850793,0.8057106558969142,0
2023-06-16 01:07:39,0.7257856691254496,0.7193206033681837,1
2023-06-19 15:58:39,0.4054562659829253,0.22036247757311567,1
2023-06-18 09:20:39,0.15907182164321387,0.3938543073355313,0
2023-06-20 23:43:39,0.5543648733621276,0.7941059451144551,1
2023-06-17 22:55:39,0.687212008314804,0.28904608661059683,0
2023-06-16 16:09:39,0.11119431207743935,0.7979972727520689,1
2023-06-18 04:19:39,0.2087900610234612,0.89029210183947,1
2023-06-16 08:08:39,0.6649858434407596,0.9104835602024661,1
2023-06-16 22:48:39,0.8279105045090198,0.5773520792889418,0
2023-06-20 00:01:39,0.23983862676498335,0.6102733529965804,1
2023-06-15 05:51:39,0.929096886436079,0.9510247704738942,0
2023-06-16 00:13:39,0.7671928956190651,0.6257562362816718,0
2023-06-15 05:02:39,0.540379931365167,0.8000330106872889,1
2023-06-18 13:17:39,0.2647229516324098,0.5597323370983972,1
2023-06-16 14:30:39,0.9859795549899087,0.4614563263045086,0
2023-06-15 14:55:39,0.124925226526449,0.7569542343291543,0
